<define-tag pagetitle>DLA-3029-1 cups</define-tag>
<define-tag report_date>2022-5-27</define-tag>
<define-tag secrefs>CVE-2022-26691 Bug#1011769</define-tag>
<define-tag packages>cups</define-tag>
<define-tag isvulnerable>yes</define-tag>
<define-tag fixed>yes</define-tag>
<define-tag fixed-section>no</define-tag>

#use wml::debian::security

