<define-tag pagetitle>DLA-2924-1 libxstream-java</define-tag>
<define-tag report_date>2022-02-15</define-tag>
<define-tag secrefs>CVE-2021-43859</define-tag>
<define-tag packages>libxstream-java</define-tag>
<define-tag isvulnerable>yes</define-tag>
<define-tag fixed>yes</define-tag>
<define-tag fixed-section>no</define-tag>

#use wml::debian::security
