<define-tag pagetitle>DLA-3024-1 python-django</define-tag>
<define-tag report_date>2022-05-26</define-tag>
<define-tag secrefs>CVE-2020-9402</define-tag>
<define-tag packages>python-django</define-tag>
<define-tag isvulnerable>yes</define-tag>
<define-tag fixed>yes</define-tag>
<define-tag fixed-section>no</define-tag>

#use wml::debian::security
