<define-tag pagetitle>DSA-4931-1 xen</define-tag>
<define-tag report_date>2021-6-15</define-tag>
<define-tag secrefs>CVE-2021-0089 CVE-2021-26313 CVE-2021-28690 CVE-2021-28692</define-tag>
<define-tag packages>xen</define-tag>
<define-tag isvulnerable>yes</define-tag>
<define-tag fixed>yes</define-tag>
<define-tag fixed-section>no</define-tag>

#use wml::debian::security



</dl>
