<define-tag pagetitle>DSA-4667-1 linux</define-tag>
<define-tag report_date>2020-4-28</define-tag>
<define-tag secrefs>CVE-2020-2732 CVE-2020-8428 CVE-2020-10942 CVE-2020-11565 CVE-2020-11884</define-tag>
<define-tag packages>linux</define-tag>
<define-tag isvulnerable>yes</define-tag>
<define-tag fixed>yes</define-tag>
<define-tag fixed-section>no</define-tag>

#use wml::debian::security



</dl>
