<define-tag pagetitle>DSA-4721-1 ruby2.5</define-tag>
<define-tag report_date>2020-7-08</define-tag>
<define-tag secrefs>CVE-2020-10663 CVE-2020-10933</define-tag>
<define-tag packages>ruby2.5</define-tag>
<define-tag isvulnerable>yes</define-tag>
<define-tag fixed>yes</define-tag>
<define-tag fixed-section>no</define-tag>

#use wml::debian::security



</dl>
