<define-tag pagetitle>DLA-2821-1 axis</define-tag>
<define-tag report_date>2021-11-17</define-tag>
<define-tag secrefs>CVE-2018-8032</define-tag>
<define-tag packages>axis</define-tag>
<define-tag isvulnerable>yes</define-tag>
<define-tag fixed>yes</define-tag>
<define-tag fixed-section>no</define-tag>

#use wml::debian::security

