<define-tag pagetitle>DLA-2706-1 apache2</define-tag>
<define-tag report_date>2021-07-09</define-tag>
<define-tag secrefs>CVE-2020-1927 CVE-2020-1934 CVE-2020-35452 CVE-2021-26690 CVE-2021-26691 CVE-2021-30641 CVE-2021-31618</define-tag>
<define-tag packages>apache2</define-tag>
<define-tag isvulnerable>yes</define-tag>
<define-tag fixed>yes</define-tag>
<define-tag fixed-section>no</define-tag>

#use wml::debian::security

