<define-tag pagetitle>DLA-1215-1 otrs2</define-tag>
<define-tag report_date>2017-12-20</define-tag>
<define-tag secrefs>CVE-2017-17476 Bug#884801</define-tag>
<define-tag packages>otrs2</define-tag>
<define-tag isvulnerable>yes</define-tag>
<define-tag fixed>yes</define-tag>
<define-tag fixed-section>no</define-tag>

#use wml::debian::security

