<define-tag pagetitle>DLA-1205-1 simplesamlphp</define-tag>
<define-tag report_date>2017-12-12</define-tag>
<define-tag secrefs>CVE-2017-12867 CVE-2017-12868 CVE-2017-12869 CVE-2017-12872 CVE-2017-12873 CVE-2017-12874</define-tag>
<define-tag packages>simplesamlphp</define-tag>
<define-tag isvulnerable>yes</define-tag>
<define-tag fixed>yes</define-tag>
<define-tag fixed-section>no</define-tag>

#use wml::debian::security

