<define-tag pagetitle>DLA-2209-1 tomcat8</define-tag>
<define-tag report_date>2020-5-28</define-tag>
<define-tag secrefs>CVE-2019-17563 CVE-2020-1935 CVE-2020-1938 CVE-2020-9484 Bug#961209 Bug#952436 Bug#952437 Bug#952438</define-tag>
<define-tag packages>tomcat8</define-tag>
<define-tag isvulnerable>yes</define-tag>
<define-tag fixed>yes</define-tag>
<define-tag fixed-section>no</define-tag>

#use wml::debian::security

