<define-tag pagetitle>DLA-1866-1 glib2.0</define-tag>
<define-tag report_date>2019-07-31</define-tag>
<define-tag secrefs>CVE-2018-16428 CVE-2018-16429 CVE-2019-13012 Bug#931234</define-tag>
<define-tag packages>glib2.0</define-tag>
<define-tag isvulnerable>yes</define-tag>
<define-tag fixed>yes</define-tag>
<define-tag fixed-section>no</define-tag>

#use wml::debian::security

