<define-tag pagetitle>DLA-1810-1 tomcat7</define-tag>
<define-tag report_date>2019-05-30</define-tag>
<define-tag secrefs>CVE-2019-0221</define-tag>
<define-tag packages>tomcat7</define-tag>
<define-tag isvulnerable>yes</define-tag>
<define-tag fixed>yes</define-tag>
<define-tag fixed-section>no</define-tag>

#use wml::debian::security

