<define-tag pagetitle>DLA-451-1 openjdk-7</define-tag>
<define-tag report_date>2016-5-3</define-tag>
<define-tag secrefs>CVE-2016-0636 CVE-2016-0686 CVE-2016-0687 CVE-2016-0695 CVE-2016-3425 CVE-2016-3426 CVE-2016-3427</define-tag>
<define-tag packages>openjdk-7</define-tag>
<define-tag isvulnerable>yes</define-tag>
<define-tag fixed>yes</define-tag>
<define-tag fixed-section>no</define-tag>

#use wml::debian::security

