<define-tag pagetitle>DLA-522-1 python2.7</define-tag>
<define-tag report_date>2016-6-21</define-tag>
<define-tag secrefs>CVE-2016-0772 CVE-2016-5636 CVE-2016-5699</define-tag>
<define-tag packages>python2.7</define-tag>
<define-tag isvulnerable>yes</define-tag>
<define-tag fixed>yes</define-tag>
<define-tag fixed-section>no</define-tag>

#use wml::debian::security

